…
Let’s start with examples:

``` r
# if you dont have it yet, install readr
# install.packages("readr")
library(readr)

sample_data <- read_csv("data/sample_data.csv")

# check this:
sample_data
## # A tibble: 43 x 6
##    Region  Rep      Item   Units `Unit Cost` Total
##    <chr>   <chr>    <chr>  <dbl>       <dbl> <dbl>
##  1 East    Jones    Pencil    95        1.99 189. 
##  2 Central Kivell   Binder    50       20.0  999. 
##  3 Central Jardine  Pencil    36        4.99 180. 
##  4 Central Gill     Pen       27       20.0  540. 
##  5 West    Sorvino  Pencil    56        2.99 167. 
##  6 East    Jones    Binder    60        4.99 299. 
##  7 Central Andrews  Pencil    75        1.99 149. 
##  8 Central Jardine  Pencil    90        4.99 449. 
##  9 West    Thompson Pencil    32        1.99  63.7
## 10 East    Jones    Binder    60        8.99 539. 
## # ... with 33 more rows
```
…
Using `select()` :

``` r
# if you dont have it yet, install dplyr
# install.packages("dplyr")
library(dplyr)

# select two columns
selected_data <- select(sample_data, Region, Item)

selected_data
## # A tibble: 43 x 2
##    Region  Item  
##    <chr>   <chr> 
##  1 East    Pencil
##  2 Central Binder
##  3 Central Pencil
##  4 Central Pen   
##  5 West    Pencil
##  6 East    Binder
##  7 Central Pencil
##  8 Central Pencil
##  9 West    Pencil
## 10 East    Binder
## # ... with 33 more rows
```

``` r
# select a range of columns
selected_data <- select(sample_data, Region:Item)

selected_data
## # A tibble: 43 x 3
##    Region  Rep      Item  
##    <chr>   <chr>    <chr> 
##  1 East    Jones    Pencil
##  2 Central Kivell   Binder
##  3 Central Jardine  Pencil
##  4 Central Gill     Pen   
##  5 West    Sorvino  Pencil
##  6 East    Jones    Binder
##  7 Central Andrews  Pencil
##  8 Central Jardine  Pencil
##  9 West    Thompson Pencil
## 10 East    Jones    Binder
## # ... with 33 more rows
```

Using `mutate()` :

``` r
# if you dont have it yet, install dplyr
# install.packages("dplyr")
library(dplyr)

# create a new column called `Hundred_cost` using `Unit Cost` as origin
mutated_data <- mutate(sample_data, Hundred_cost = `Unit Cost` * 100)

mutated_data
## # A tibble: 43 x 7
##    Region  Rep      Item   Units `Unit Cost` Total Hundred_cost
##    <chr>   <chr>    <chr>  <dbl>       <dbl> <dbl>        <dbl>
##  1 East    Jones    Pencil    95        1.99 189.          199 
##  2 Central Kivell   Binder    50       20.0  999.         1999.
##  3 Central Jardine  Pencil    36        4.99 180.          499 
##  4 Central Gill     Pen       27       20.0  540.         1999.
##  5 West    Sorvino  Pencil    56        2.99 167.          299 
##  6 East    Jones    Binder    60        4.99 299.          499 
##  7 Central Andrews  Pencil    75        1.99 149.          199 
##  8 Central Jardine  Pencil    90        4.99 449.          499 
##  9 West    Thompson Pencil    32        1.99  63.7         199 
## 10 East    Jones    Binder    60        8.99 539.          899 
## # ... with 33 more rows
```
> **ATTENTION:** If you use the name of an existing column, dplyr will
> not create a copy, but will overwrite the original with new data.

Using `arrange()` :

``` r
# if you dont have it yet, install dplyr
# install.packages("dplyr")
library(dplyr)

# Sort by Region and then by Rep descending order
arranged_data <- arrange(sample_data, Region, desc(Rep))

arranged_data
## # A tibble: 43 x 6
##    Region  Rep    Item    Units `Unit Cost`  Total
##    <chr>   <chr>  <chr>   <dbl>       <dbl>  <dbl>
##  1 Central Smith  Desk        2      125     250  
##  2 Central Smith  Pencil     67        1.29   86.4
##  3 Central Smith  Binder     87       15    1305  
##  4 Central Morgan Pencil     90        4.99  449. 
##  5 Central Morgan Binder     28        8.99  252. 
##  6 Central Morgan Pen Set    55       12.5   687. 
##  7 Central Kivell Binder     50       20.0   999. 
##  8 Central Kivell Pen Set    96        4.99  479. 
##  9 Central Kivell Desk        5      125     625  
## 10 Central Kivell Pen Set    42       24.0  1006. 
## # ... with 33 more rows
```
…
